TestCase,proferochina_en,previewprod_en,previewprod_es,live_en,live_es
Test_MedicalExcellenceLandingPage_VerifyMenuLink,http://thrive.proferochina.com/healthier-outcomes,http://preview.thrive.prod.dpaprod.kpwpce.kp-aws-cloud.org/healthier-outcomes,http://preview.vivabien.prod.dpaprod.kpwpce.kp-aws-cloud.org/resultados-saludables,https://thrive.kaiserpermanente.org/healthier-outcomes,https://vivabien.kaiserpermanente.org/resultados-saludables
Test_MedicalExcellenceLandingPage_VerifyMenuNavigationLinks,http://thrive.proferochina.com/healthier-outcomes#care-stories;http://thrive.proferochina.com/healthier-outcomes#excellent-care;http://thrive.proferochina.com/healthier-outcomes#specialty-spotlight;http://thrive.proferochina.com/healthier-outcomes#;http://thrive.proferochina.com/healthier-outcomes#,http://preview.thrive.prod.dpaprod.kpwpce.kp-aws-cloud.org/healthier-outcomes#care-stories;http://preview.thrive.prod.dpaprod.kpwpce.kp-aws-cloud.org/healthier-outcomes#excellent-care;http://preview.thrive.prod.dpaprod.kpwpce.kp-aws-cloud.org/healthier-outcomes#specialty-spotlight;http://cancercare.kaiserpermanente.org/;http://cardiaccare.kaiserpermanente.org/,http://preview.vivabien.prod.dpaprod.kpwpce.kp-aws-cloud.org/resultados-saludables#estimonios;http://preview.vivabien.prod.dpaprod.kpwpce.kp-aws-cloud.org/resultados-saludables#atencion-de-excelencia;http://preview.vivabien.prod.dpaprod.kpwpce.kp-aws-cloud.org/resultados-saludables#destacando-especialidades;https://cancercare.kaiserpermanente.org/es/;https://cardiaccare.kaiserpermanente.org/es/,https://thrive.kaiserpermanente.org/healthier-outcomes#care-stories;https://thrive.kaiserpermanente.org/healthier-outcomes#excellent-care;https://thrive.kaiserpermanente.org/healthier-outcomes#specialty-spotlight;http://cancercare.kaiserpermanente.org/;http://cardiaccare.kaiserpermanente.org/,https://vivabien.kaiserpermanente.org/resultados-saludables#estimonios;https://vivabien.kaiserpermanente.org/resultados-saludables#atencion-de-excelencia;https://vivabien.kaiserpermanente.org/resultados-saludables#destacando-especialidades;http://cancercare.kaiserpermanente.org/es/;http://cardiaccare.kaiserpermanente.org/es/
Test_MedicalExcellenceLandingPage_VerifyCareStoriesVideosAddress,https://www.youtube.com/embed/ZJUQLfW6LdE?rel=0&showinfo=0&autoplay=1;https://www.youtube.com/embed/PP54q50b1Ps?rel=0&showinfo=0&autoplay=1;https://www.youtube.com/embed/WrzJLXYVG6M?rel=0&showinfo=0&autoplay=1;https://www.youtube.com/embed/nsHAAKn0tiY?rel=0&showinfo=0&autoplay=1,http://www.youtube.com/embed/ZJUQLfW6LdE?rel=0&showinfo=0&autoplay=1;http://www.youtube.com/embed/PP54q50b1Ps?rel=0&showinfo=0&autoplay=1;http://www.youtube.com/embed/WrzJLXYVG6M?rel=0&showinfo=0&autoplay=1;http://www.youtube.com/embed/nsHAAKn0tiY?rel=0&showinfo=0&autoplay=1,http://www.youtube.com/embed/ZJUQLfW6LdE?rel=0&showinfo=0&autoplay=1;http://www.youtube.com/embed/PP54q50b1Ps?rel=0&showinfo=0&autoplay=1;http://www.youtube.com/embed/WrzJLXYVG6M?rel=0&showinfo=0&autoplay=1;http://www.youtube.com/embed/nsHAAKn0tiY?rel=0&showinfo=0&autoplay=1,https://www.youtube.com/embed/ZJUQLfW6LdE?rel=0&showinfo=0&autoplay=1;https://www.youtube.com/embed/PP54q50b1Ps?rel=0&showinfo=0&autoplay=1;https://www.youtube.com/embed/WrzJLXYVG6M?rel=0&showinfo=0&autoplay=1;https://www.youtube.com/embed/nsHAAKn0tiY?rel=0&showinfo=0&autoplay=1,https://www.youtube.com/embed/ZJUQLfW6LdE?rel=0&showinfo=0&autoplay=1;https://www.youtube.com/embed/PP54q50b1Ps?rel=0&showinfo=0&autoplay=1;https://www.youtube.com/embed/WrzJLXYVG6M?rel=0&showinfo=0&autoplay=1;https://www.youtube.com/embed/nsHAAKn0tiY?rel=0&showinfo=0&autoplay=1
Test_MedicalExcellenceLandingPage_VerifySpotlightSpecialtiesLinks,http://thrive.proferochina.com/me-landing;http://thrive.proferochina.com/me-landing;https://national-implantregistries.kaiserpermanente.org/,http://cancercare.kaiserpermanente.org/;http://cardiaccare.kaiserpermanente.org/,http://cancercare.kaiserpermanente.org/es/;http://cardiaccare.kaiserpermanente.org/es/,http://cancercare.kaiserpermanente.org/;http://cardiaccare.kaiserpermanente.org/,http://cancercare.kaiserpermanente.org/es/;http://cardiaccare.kaiserpermanente.org/es/
Test_MedicalExcellenceLandingPage_VerifyRegionLinks,http://thrive.proferochina.com/care-near-northern-california;http://thrive.proferochina.com/care-near-southern-california;http://thrive.proferochina.com/care-near-colorado;http://thrive.proferochina.com/care-near-georgia;http://thrive.proferochina.com/care-near-hawaii;http://thrive.proferochina.com/care-near-mid-atlantic;http://thrive.proferochina.com/care-near-oregon-washington,http://preview.thrive.prod.dpaprod.kpwpce.kp-aws-cloud.org/care-near-you/northern-california/;http://preview.thrive.prod.dpaprod.kpwpce.kp-aws-cloud.org/care-near-you/southern-california/;http://preview.thrive.prod.dpaprod.kpwpce.kp-aws-cloud.org/care-near-colorado;http://preview.thrive.prod.dpaprod.kpwpce.kp-aws-cloud.org/care-near-georgia;http://preview.thrive.prod.dpaprod.kpwpce.kp-aws-cloud.org/care-near-hawaii/specialty-care-doctors;https://excellence-midatlantic.kaiserpermanente.org/;http://preview.thrive.prod.dpaprod.kpwpce.kp-aws-cloud.org/care-near-oregon-washington,http://preview.vivabien.prod.dpaprod.kpwpce.kp-aws-cloud.org/en-el-area-del-norte-de-california;http://preview.vivabien.prod.dpaprod.kpwpce.kp-aws-cloud.org/en-el-area-del-sur-de-california;http://preview.vivabien.prod.dpaprod.kpwpce.kp-aws-cloud.org/en-el-area-del-colorado;http://preview.vivabien.prod.dpaprod.kpwpce.kp-aws-cloud.org/en-el-area-de-georgia;http://preview.vivabien.prod.dpaprod.kpwpce.kp-aws-cloud.org/en-el-area-de-hawai;http://preview.vivabien.prod.dpaprod.kpwpce.kp-aws-cloud.org/en-el-area-del-atlantico-medio/nuestros-medicos;http://preview.vivabien.prod.dpaprod.kpwpce.kp-aws-cloud.org/en-el-area-de-oregon-washington,https://thrive.kaiserpermanente.org/care-near-you/northern-california/;https://thrive.kaiserpermanente.org/care-near-you/southern-california/;http://thrive.kaiserpermanente.org/care-near-colorado;http://thrive.kaiserpermanente.org/care-near-georgia;http://thrive.kaiserpermanente.org/care-near-hawaii/specialty-care-doctors;https://excellence-midatlantic.kaiserpermanente.org/;http://thrive.kaiserpermanente.org/care-near-oregon-washington,http://vivabien.kaiserpermanente.org/en-el-area-del-norte-de-california;http://vivabien.kaiserpermanente.org/en-el-area-del-sur-de-california;http://vivabien.kaiserpermanente.org/en-el-area-del-colorado;http://vivabien.kaiserpermanente.org/en-el-area-de-georgia;http://vivabien.kaiserpermanente.org/en-el-area-de-hawai;http://vivabien.kaiserpermanente.org/en-el-area-del-atlantico-medio/nuestros-medicos;http://vivabien.kaiserpermanente.org/en-el-area-de-oregon-washington
